[
  {
    "diagnosisSort": "主要",
    "diagnosticCode": "D14.30",
    "clinicalDiagnosis": "Benign neoplasm of u"
  },
  {
    "diagnosisSort": "次要",
    "diagnosticCode": "J41.0",
    "clinicalDiagnosis": "Simple chronic bronch"
  }
]
